compliment.vcd
$date
	Wed Nov 27 19:03:36 2019
$end
$version
	Icarus Verilog
$end
$timescale
	100ps
$end
$scope module tb $end
$var wire 4 ! sig_out4 [3:0] $end
$var wire 4 " sig_out3 [3:0] $end
$var wire 4 # sig_out2 [3:0] $end
$var wire 4 $ sig_out1 [3:0] $end
$var wire 4 % sig_out0 [3:0] $end
$var wire 4 & sig_in4 [3:0] $end
$var wire 4 ' sig_in3 [3:0] $end
$var wire 4 ( sig_in2 [3:0] $end
$var wire 4 ) sig_in1 [3:0] $end
$var wire 4 * sig_in0 [3:0] $end
$var reg 1 + clk $end
$var reg 1 , set $end
$scope module sci0 $end
$var wire 1 + clk $end
$var wire 4 - load_sig [3:0] $end
$var wire 1 , set $end
$var wire 4 . out_sig [3:0] $end
$scope module ci0 $end
$var wire 1 + clk $end
$var wire 1 , load $end
$var wire 4 / load_sig [3:0] $end
$var wire 1 0 t2 $end
$var wire 1 1 t1 $end
$var wire 4 2 out_sig [3:0] $end
$scope module aui0 $end
$var wire 1 + clk $end
$var wire 1 3 cout $end
$var wire 1 , set $end
$var wire 1 4 t $end
$var wire 1 1 nbit $end
$var wire 1 5 carry $end
$scope module dfi4 $end
$var wire 1 + clk $end
$var wire 1 , set $end
$var wire 1 5 out $end
$var wire 1 4 in $end
$var wire 1 6 dfr_out $end
$var wire 1 7 dfr_in $end
$scope module dfr_2 $end
$var wire 1 + clk $end
$var wire 1 , reset $end
$var wire 1 8 reset_ $end
$var wire 1 6 out $end
$var wire 1 7 in $end
$var wire 1 9 df_in $end
$scope module and2_0 $end
$var wire 1 9 o $end
$var wire 1 8 i1 $end
$var wire 1 7 i0 $end
$upscope $end
$scope module df_0 $end
$var wire 1 + clk $end
$var wire 1 9 in $end
$var wire 1 6 out $end
$var reg 1 6 df_out $end
$upscope $end
$scope module invert_0 $end
$var wire 1 , i $end
$var wire 1 8 o $end
$upscope $end
$upscope $end
$scope module invert_0 $end
$var wire 1 7 o $end
$var wire 1 4 i $end
$upscope $end
$scope module invert_1 $end
$var wire 1 6 i $end
$var wire 1 5 o $end
$upscope $end
$upscope $end
$scope module hai1 $end
$var wire 1 3 a $end
$var wire 1 5 b $end
$var wire 1 4 c $end
$var wire 1 1 s $end
$upscope $end
$upscope $end
$scope module sri0 $end
$var wire 1 1 cin $end
$var wire 1 + clk $end
$var wire 1 , load $end
$var wire 4 : load_sig [3:0] $end
$var wire 4 ; out_sig [3:0] $end
$var wire 4 < tmp [3:0] $end
$var wire 4 = regw [3:0] $end
$var wire 1 0 cout $end
$scope module dfi0 $end
$var wire 1 + clk $end
$var wire 1 > in $end
$var wire 1 ? out $end
$var reg 1 ? df_out $end
$upscope $end
$scope module dfi1 $end
$var wire 1 + clk $end
$var wire 1 @ in $end
$var wire 1 A out $end
$var reg 1 A df_out $end
$upscope $end
$scope module dfi2 $end
$var wire 1 + clk $end
$var wire 1 B in $end
$var wire 1 C out $end
$var reg 1 C df_out $end
$upscope $end
$scope module dfi3 $end
$var wire 1 + clk $end
$var wire 1 D in $end
$var wire 1 E out $end
$var reg 1 E df_out $end
$upscope $end
$scope module mx2i0 $end
$var wire 1 F i0 $end
$var wire 1 G i1 $end
$var wire 1 , j $end
$var wire 1 H o $end
$upscope $end
$scope module mx2i1 $end
$var wire 1 I i0 $end
$var wire 1 J i1 $end
$var wire 1 , j $end
$var wire 1 K o $end
$upscope $end
$scope module mx2i2 $end
$var wire 1 L i0 $end
$var wire 1 M i1 $end
$var wire 1 , j $end
$var wire 1 N o $end
$upscope $end
$scope module mx2i3 $end
$var wire 1 1 i0 $end
$var wire 1 O i1 $end
$var wire 1 , j $end
$var wire 1 P o $end
$upscope $end
$upscope $end
$upscope $end
$upscope $end
$scope module sci1 $end
$var wire 1 + clk $end
$var wire 4 Q load_sig [3:0] $end
$var wire 1 , set $end
$var wire 4 R out_sig [3:0] $end
$scope module ci0 $end
$var wire 1 + clk $end
$var wire 1 , load $end
$var wire 4 S load_sig [3:0] $end
$var wire 1 T t2 $end
$var wire 1 U t1 $end
$var wire 4 V out_sig [3:0] $end
$scope module aui0 $end
$var wire 1 + clk $end
$var wire 1 W cout $end
$var wire 1 , set $end
$var wire 1 X t $end
$var wire 1 U nbit $end
$var wire 1 Y carry $end
$scope module dfi4 $end
$var wire 1 + clk $end
$var wire 1 , set $end
$var wire 1 Y out $end
$var wire 1 X in $end
$var wire 1 Z dfr_out $end
$var wire 1 [ dfr_in $end
$scope module dfr_2 $end
$var wire 1 + clk $end
$var wire 1 , reset $end
$var wire 1 \ reset_ $end
$var wire 1 Z out $end
$var wire 1 [ in $end
$var wire 1 ] df_in $end
$scope module and2_0 $end
$var wire 1 ] o $end
$var wire 1 \ i1 $end
$var wire 1 [ i0 $end
$upscope $end
$scope module df_0 $end
$var wire 1 + clk $end
$var wire 1 ] in $end
$var wire 1 Z out $end
$var reg 1 Z df_out $end
$upscope $end
$scope module invert_0 $end
$var wire 1 , i $end
$var wire 1 \ o $end
$upscope $end
$upscope $end
$scope module invert_0 $end
$var wire 1 [ o $end
$var wire 1 X i $end
$upscope $end
$scope module invert_1 $end
$var wire 1 Z i $end
$var wire 1 Y o $end
$upscope $end
$upscope $end
$scope module hai1 $end
$var wire 1 W a $end
$var wire 1 Y b $end
$var wire 1 X c $end
$var wire 1 U s $end
$upscope $end
$upscope $end
$scope module sri0 $end
$var wire 1 U cin $end
$var wire 1 + clk $end
$var wire 1 , load $end
$var wire 4 ^ load_sig [3:0] $end
$var wire 4 _ out_sig [3:0] $end
$var wire 4 ` tmp [3:0] $end
$var wire 4 a regw [3:0] $end
$var wire 1 T cout $end
$scope module dfi0 $end
$var wire 1 + clk $end
$var wire 1 b in $end
$var wire 1 c out $end
$var reg 1 c df_out $end
$upscope $end
$scope module dfi1 $end
$var wire 1 + clk $end
$var wire 1 d in $end
$var wire 1 e out $end
$var reg 1 e df_out $end
$upscope $end
$scope module dfi2 $end
$var wire 1 + clk $end
$var wire 1 f in $end
$var wire 1 g out $end
$var reg 1 g df_out $end
$upscope $end
$scope module dfi3 $end
$var wire 1 + clk $end
$var wire 1 h in $end
$var wire 1 i out $end
$var reg 1 i df_out $end
$upscope $end
$scope module mx2i0 $end
$var wire 1 j i0 $end
$var wire 1 k i1 $end
$var wire 1 , j $end
$var wire 1 l o $end
$upscope $end
$scope module mx2i1 $end
$var wire 1 m i0 $end
$var wire 1 n i1 $end
$var wire 1 , j $end
$var wire 1 o o $end
$upscope $end
$scope module mx2i2 $end
$var wire 1 p i0 $end
$var wire 1 q i1 $end
$var wire 1 , j $end
$var wire 1 r o $end
$upscope $end
$scope module mx2i3 $end
$var wire 1 U i0 $end
$var wire 1 s i1 $end
$var wire 1 , j $end
$var wire 1 t o $end
$upscope $end
$upscope $end
$upscope $end
$upscope $end
$scope module sci2 $end
$var wire 1 + clk $end
$var wire 4 u load_sig [3:0] $end
$var wire 1 , set $end
$var wire 4 v out_sig [3:0] $end
$scope module ci0 $end
$var wire 1 + clk $end
$var wire 1 , load $end
$var wire 4 w load_sig [3:0] $end
$var wire 1 x t2 $end
$var wire 1 y t1 $end
$var wire 4 z out_sig [3:0] $end
$scope module aui0 $end
$var wire 1 + clk $end
$var wire 1 { cout $end
$var wire 1 , set $end
$var wire 1 | t $end
$var wire 1 y nbit $end
$var wire 1 } carry $end
$scope module dfi4 $end
$var wire 1 + clk $end
$var wire 1 , set $end
$var wire 1 } out $end
$var wire 1 | in $end
$var wire 1 ~ dfr_out $end
$var wire 1 !" dfr_in $end
$scope module dfr_2 $end
$var wire 1 + clk $end
$var wire 1 , reset $end
$var wire 1 "" reset_ $end
$var wire 1 ~ out $end
$var wire 1 !" in $end
$var wire 1 #" df_in $end
$scope module and2_0 $end
$var wire 1 #" o $end
$var wire 1 "" i1 $end
$var wire 1 !" i0 $end
$upscope $end
$scope module df_0 $end
$var wire 1 + clk $end
$var wire 1 #" in $end
$var wire 1 ~ out $end
$var reg 1 ~ df_out $end
$upscope $end
$scope module invert_0 $end
$var wire 1 , i $end
$var wire 1 "" o $end
$upscope $end
$upscope $end
$scope module invert_0 $end
$var wire 1 !" o $end
$var wire 1 | i $end
$upscope $end
$scope module invert_1 $end
$var wire 1 ~ i $end
$var wire 1 } o $end
$upscope $end
$upscope $end
$scope module hai1 $end
$var wire 1 { a $end
$var wire 1 } b $end
$var wire 1 | c $end
$var wire 1 y s $end
$upscope $end
$upscope $end
$scope module sri0 $end
$var wire 1 y cin $end
$var wire 1 + clk $end
$var wire 1 , load $end
$var wire 4 $" load_sig [3:0] $end
$var wire 4 %" out_sig [3:0] $end
$var wire 4 &" tmp [3:0] $end
$var wire 4 '" regw [3:0] $end
$var wire 1 x cout $end
$scope module dfi0 $end
$var wire 1 + clk $end
$var wire 1 (" in $end
$var wire 1 )" out $end
$var reg 1 )" df_out $end
$upscope $end
$scope module dfi1 $end
$var wire 1 + clk $end
$var wire 1 *" in $end
$var wire 1 +" out $end
$var reg 1 +" df_out $end
$upscope $end
$scope module dfi2 $end
$var wire 1 + clk $end
$var wire 1 ," in $end
$var wire 1 -" out $end
$var reg 1 -" df_out $end
$upscope $end
$scope module dfi3 $end
$var wire 1 + clk $end
$var wire 1 ." in $end
$var wire 1 /" out $end
$var reg 1 /" df_out $end
$upscope $end
$scope module mx2i0 $end
$var wire 1 0" i0 $end
$var wire 1 1" i1 $end
$var wire 1 , j $end
$var wire 1 2" o $end
$upscope $end
$scope module mx2i1 $end
$var wire 1 3" i0 $end
$var wire 1 4" i1 $end
$var wire 1 , j $end
$var wire 1 5" o $end
$upscope $end
$scope module mx2i2 $end
$var wire 1 6" i0 $end
$var wire 1 7" i1 $end
$var wire 1 , j $end
$var wire 1 8" o $end
$upscope $end
$scope module mx2i3 $end
$var wire 1 y i0 $end
$var wire 1 9" i1 $end
$var wire 1 , j $end
$var wire 1 :" o $end
$upscope $end
$upscope $end
$upscope $end
$upscope $end
$scope module sci3 $end
$var wire 1 + clk $end
$var wire 4 ;" load_sig [3:0] $end
$var wire 1 , set $end
$var wire 4 <" out_sig [3:0] $end
$scope module ci0 $end
$var wire 1 + clk $end
$var wire 1 , load $end
$var wire 4 =" load_sig [3:0] $end
$var wire 1 >" t2 $end
$var wire 1 ?" t1 $end
$var wire 4 @" out_sig [3:0] $end
$scope module aui0 $end
$var wire 1 + clk $end
$var wire 1 A" cout $end
$var wire 1 , set $end
$var wire 1 B" t $end
$var wire 1 ?" nbit $end
$var wire 1 C" carry $end
$scope module dfi4 $end
$var wire 1 + clk $end
$var wire 1 , set $end
$var wire 1 C" out $end
$var wire 1 B" in $end
$var wire 1 D" dfr_out $end
$var wire 1 E" dfr_in $end
$scope module dfr_2 $end
$var wire 1 + clk $end
$var wire 1 , reset $end
$var wire 1 F" reset_ $end
$var wire 1 D" out $end
$var wire 1 E" in $end
$var wire 1 G" df_in $end
$scope module and2_0 $end
$var wire 1 G" o $end
$var wire 1 F" i1 $end
$var wire 1 E" i0 $end
$upscope $end
$scope module df_0 $end
$var wire 1 + clk $end
$var wire 1 G" in $end
$var wire 1 D" out $end
$var reg 1 D" df_out $end
$upscope $end
$scope module invert_0 $end
$var wire 1 , i $end
$var wire 1 F" o $end
$upscope $end
$upscope $end
$scope module invert_0 $end
$var wire 1 E" o $end
$var wire 1 B" i $end
$upscope $end
$scope module invert_1 $end
$var wire 1 D" i $end
$var wire 1 C" o $end
$upscope $end
$upscope $end
$scope module hai1 $end
$var wire 1 A" a $end
$var wire 1 C" b $end
$var wire 1 B" c $end
$var wire 1 ?" s $end
$upscope $end
$upscope $end
$scope module sri0 $end
$var wire 1 ?" cin $end
$var wire 1 + clk $end
$var wire 1 , load $end
$var wire 4 H" load_sig [3:0] $end
$var wire 4 I" out_sig [3:0] $end
$var wire 4 J" tmp [3:0] $end
$var wire 4 K" regw [3:0] $end
$var wire 1 >" cout $end
$scope module dfi0 $end
$var wire 1 + clk $end
$var wire 1 L" in $end
$var wire 1 M" out $end
$var reg 1 M" df_out $end
$upscope $end
$scope module dfi1 $end
$var wire 1 + clk $end
$var wire 1 N" in $end
$var wire 1 O" out $end
$var reg 1 O" df_out $end
$upscope $end
$scope module dfi2 $end
$var wire 1 + clk $end
$var wire 1 P" in $end
$var wire 1 Q" out $end
$var reg 1 Q" df_out $end
$upscope $end
$scope module dfi3 $end
$var wire 1 + clk $end
$var wire 1 R" in $end
$var wire 1 S" out $end
$var reg 1 S" df_out $end
$upscope $end
$scope module mx2i0 $end
$var wire 1 T" i0 $end
$var wire 1 U" i1 $end
$var wire 1 , j $end
$var wire 1 V" o $end
$upscope $end
$scope module mx2i1 $end
$var wire 1 W" i0 $end
$var wire 1 X" i1 $end
$var wire 1 , j $end
$var wire 1 Y" o $end
$upscope $end
$scope module mx2i2 $end
$var wire 1 Z" i0 $end
$var wire 1 [" i1 $end
$var wire 1 , j $end
$var wire 1 \" o $end
$upscope $end
$scope module mx2i3 $end
$var wire 1 ?" i0 $end
$var wire 1 ]" i1 $end
$var wire 1 , j $end
$var wire 1 ^" o $end
$upscope $end
$upscope $end
$upscope $end
$upscope $end
$scope module sci4 $end
$var wire 1 + clk $end
$var wire 4 _" load_sig [3:0] $end
$var wire 1 , set $end
$var wire 4 `" out_sig [3:0] $end
$scope module ci0 $end
$var wire 1 + clk $end
$var wire 1 , load $end
$var wire 4 a" load_sig [3:0] $end
$var wire 1 b" t2 $end
$var wire 1 c" t1 $end
$var wire 4 d" out_sig [3:0] $end
$scope module aui0 $end
$var wire 1 + clk $end
$var wire 1 e" cout $end
$var wire 1 , set $end
$var wire 1 f" t $end
$var wire 1 c" nbit $end
$var wire 1 g" carry $end
$scope module dfi4 $end
$var wire 1 + clk $end
$var wire 1 , set $end
$var wire 1 g" out $end
$var wire 1 f" in $end
$var wire 1 h" dfr_out $end
$var wire 1 i" dfr_in $end
$scope module dfr_2 $end
$var wire 1 + clk $end
$var wire 1 , reset $end
$var wire 1 j" reset_ $end
$var wire 1 h" out $end
$var wire 1 i" in $end
$var wire 1 k" df_in $end
$scope module and2_0 $end
$var wire 1 k" o $end
$var wire 1 j" i1 $end
$var wire 1 i" i0 $end
$upscope $end
$scope module df_0 $end
$var wire 1 + clk $end
$var wire 1 k" in $end
$var wire 1 h" out $end
$var reg 1 h" df_out $end
$upscope $end
$scope module invert_0 $end
$var wire 1 , i $end
$var wire 1 j" o $end
$upscope $end
$upscope $end
$scope module invert_0 $end
$var wire 1 i" o $end
$var wire 1 f" i $end
$upscope $end
$scope module invert_1 $end
$var wire 1 h" i $end
$var wire 1 g" o $end
$upscope $end
$upscope $end
$scope module hai1 $end
$var wire 1 e" a $end
$var wire 1 g" b $end
$var wire 1 f" c $end
$var wire 1 c" s $end
$upscope $end
$upscope $end
$scope module sri0 $end
$var wire 1 c" cin $end
$var wire 1 + clk $end
$var wire 1 , load $end
$var wire 4 l" load_sig [3:0] $end
$var wire 4 m" out_sig [3:0] $end
$var wire 4 n" tmp [3:0] $end
$var wire 4 o" regw [3:0] $end
$var wire 1 b" cout $end
$scope module dfi0 $end
$var wire 1 + clk $end
$var wire 1 p" in $end
$var wire 1 q" out $end
$var reg 1 q" df_out $end
$upscope $end
$scope module dfi1 $end
$var wire 1 + clk $end
$var wire 1 r" in $end
$var wire 1 s" out $end
$var reg 1 s" df_out $end
$upscope $end
$scope module dfi2 $end
$var wire 1 + clk $end
$var wire 1 t" in $end
$var wire 1 u" out $end
$var reg 1 u" df_out $end
$upscope $end
$scope module dfi3 $end
$var wire 1 + clk $end
$var wire 1 v" in $end
$var wire 1 w" out $end
$var reg 1 w" df_out $end
$upscope $end
$scope module mx2i0 $end
$var wire 1 x" i0 $end
$var wire 1 y" i1 $end
$var wire 1 , j $end
$var wire 1 z" o $end
$upscope $end
$scope module mx2i1 $end
$var wire 1 {" i0 $end
$var wire 1 |" i1 $end
$var wire 1 , j $end
$var wire 1 }" o $end
$upscope $end
$scope module mx2i2 $end
$var wire 1 ~" i0 $end
$var wire 1 !# i1 $end
$var wire 1 , j $end
$var wire 1 "# o $end
$upscope $end
$scope module mx2i3 $end
$var wire 1 c" i0 $end
$var wire 1 ## i1 $end
$var wire 1 , j $end
$var wire 1 $# o $end
$upscope $end
$upscope $end
$upscope $end
$upscope $end
$upscope $end
$enddefinitions $end
#0
$dumpvars
0$#
0##
0"#
0!#
x~"
1}"
1|"
x{"
0z"
0y"
xx"
xw"
0v"
xu"
0t"
xs"
1r"
xq"
0p"
bx o"
b10 n"
bx m"
b10 l"
0k"
0j"
xi"
xh"
xg"
xf"
xe"
bx d"
xc"
xb"
b10 a"
bx `"
b10 _"
0^"
0]"
1\"
1["
xZ"
1Y"
1X"
xW"
0V"
0U"
xT"
xS"
0R"
xQ"
1P"
xO"
1N"
xM"
0L"
bx K"
b110 J"
bx I"
b110 H"
0G"
0F"
xE"
xD"
xC"
xB"
xA"
bx @"
x?"
x>"
b110 ="
bx <"
b110 ;"
1:"
19"
08"
07"
x6"
05"
04"
x3"
02"
01"
x0"
x/"
1."
x-"
0,"
x+"
0*"
x)"
0("
bx '"
b1000 &"
bx %"
b1000 $"
0#"
0""
x!"
x~
x}
x|
x{
bx z
xy
xx
b1000 w
bx v
b1000 u
0t
0s
0r
0q
xp
1o
1n
xm
1l
1k
xj
xi
0h
xg
0f
xe
1d
xc
1b
bx a
b11 `
bx _
b11 ^
0]
0\
x[
xZ
xY
xX
xW
bx V
xU
xT
b11 S
bx R
b11 Q
1P
1O
0N
0M
xL
1K
1J
xI
0H
0G
xF
xE
1D
xC
0B
xA
1@
x?
0>
bx =
b1010 <
bx ;
b1010 :
09
08
x7
x6
x5
x4
x3
bx 2
x1
x0
b1010 /
bx .
b1010 -
1,
0+
b1010 *
b11 )
b1000 (
b110 '
b10 &
bx %
bx $
bx #
bx "
bx !
$end
#50
01
07
14
1U
1[
0X
0y
0!"
1|
0?"
0E"
1B"
0c"
0i"
1f"
13
00
1F
0I
1L
0W
1T
1j
0m
0p
1{
0x
00"
03"
16"
1A"
0>"
1T"
1W"
0Z"
1e"
0b"
1x"
0{"
0~"
0?
1A
0C
b1010 %
b1010 .
b1010 2
b1010 ;
b1010 =
1E
15
06
1c
1e
0g
b11 $
b11 R
b11 V
b11 _
b11 a
0i
1Y
0Z
0)"
0+"
0-"
b1000 #
b1000 v
b1000 z
b1000 %"
b1000 '"
1/"
1}
0~
0M"
1O"
1Q"
b110 "
b110 <"
b110 @"
b110 I"
b110 K"
0S"
1C"
0D"
0q"
1s"
0u"
b10 !
b10 `"
b10 d"
b10 m"
b10 o"
0w"
1g"
0h"
1+
#100
0+
#120
1>
0@
1B
0D
0d
1h
1,"
0."
1L"
0P"
1p"
0r"
1H
0K
1N
b101 <
0P
1]
0o
b1001 `
1t
18"
b100 &"
0:"
1V"
b11 J"
0\"
1z"
b1 n"
0}"
18
1\
1""
1F"
1j"
0,
#150
1v"
1R"
1D
0p"
1$#
1k"
0N"
1^"
1G"
0,"
1*"
0h
1f
0b
0B
1@
0>
1P
19
b1000 n"
0z"
1c"
1i"
0f"
b1001 J"
0Y"
1?"
1E"
0B"
08"
b10 &"
15"
0t
1r
b100 `
0l
0N
1K
b1010 <
0H
11
17
04
0x"
0e"
1b"
0W"
0A"
1>"
06"
13"
0U
1p
0j
0L
1I
0F
03
10
0s"
b1 !
b1 `"
b1 d"
b1 m"
b1 o"
1q"
0Q"
b11 "
b11 <"
b11 @"
b11 I"
b11 K"
1M"
0/"
b100 #
b100 v
b100 z
b100 %"
b100 '"
1-"
0Y
1Z
1i
b1001 $
b1001 R
b1001 V
b1001 _
b1001 a
0e
0E
1C
0A
b101 %
b101 .
b101 2
b101 ;
b101 =
1?
1+
#200
0+
#250
1h
1>
0@
1B
1D
1t
1d
0f
1("
0*"
0L"
1P"
0R"
1t"
1v"
1H
0K
1N
b1101 <
1P
1U
1o
b1010 `
0r
12"
b1 &"
05"
0V"
1\"
b100 J"
0^"
1"#
b1100 n"
1$#
13
00
1F
0I
1L
11
1W
0T
1m
0p
10"
03"
0T"
1Z"
0?"
1e"
0b"
1~"
1c"
0?
1A
0C
b1010 %
b1010 .
b1010 2
b1010 ;
b1010 =
1E
05
16
0c
1g
b100 $
b100 R
b100 V
b100 _
b100 a
0i
1+"
b10 #
b10 v
b10 z
b10 %"
b10 '"
0-"
0O"
b1001 "
b1001 <"
b1001 @"
b1001 I"
b1001 K"
1S"
0C"
1D"
0q"
b1000 !
b1000 `"
b1000 d"
b1000 m"
b1000 o"
1w"
0g"
1h"
1+
#300
0+
#350
1R"
1."
0D
1r"
0P"
1N"
1^"
0("
1:"
1#"
1f
0d
1b
1@
0>
0P
b1110 n"
1}"
0\"
b1010 J"
1Y"
1?"
b1000 &"
02"
1y
1!"
0|
1r
0o
b1101 `
1l
1K
b110 <
0H
01
1{"
0Z"
1W"
1A"
0>"
00"
0{
1x
1p
0m
1j
1I
0F
03
10
b1100 !
b1100 `"
b1100 d"
b1100 m"
b1100 o"
1u"
0S"
1Q"
b100 "
b100 <"
b100 @"
b100 I"
b100 K"
0M"
0+"
b1 #
b1 v
b1 z
b1 %"
b1 '"
1)"
1i
0g
b1010 $
b1010 R
b1010 V
b1010 _
b1010 a
1e
1C
0A
b1101 %
b1101 .
b1101 2
b1101 ;
b1101 =
1?
1+
#400
0+
#450
1D
0h
1P
1>
0B
0t
0b
1d
1,"
1."
1L"
0N"
1P"
1p"
11
1H
b1011 <
0N
0U
0l
b110 `
1o
18"
b1100 &"
1:"
1V"
0Y"
b1101 J"
1\"
b1111 n"
1z"
13
00
1F
0L
0W
1T
0j
1m
1{
0x
16"
1y
1T"
0W"
1Z"
1x"
0?
1A
b110 %
b110 .
b110 2
b110 ;
b110 =
0E
1c
0e
b1101 $
b1101 R
b1101 V
b1101 _
b1101 a
1g
0)"
b1000 #
b1000 v
b1000 z
b1000 %"
b1000 '"
1/"
0}
1~
1O"
0Q"
b1010 "
b1010 <"
b1010 @"
b1010 I"
b1010 K"
1S"
b1110 !
b1110 `"
b1110 d"
b1110 m"
b1110 o"
1s"
1+
#500
0+
#550
0v"
0R"
1h
0D
b111 n"
0$#
1N"
0L"
0^"
1*"
0f
1b
1t
1B
0@
0P
0c"
1Y"
b110 J"
0V"
0?"
b1110 &"
15"
0r
b1011 `
1l
1U
1N
b101 <
0K
01
0e"
1b"
1W"
0T"
0A"
1>"
13"
0p
1j
1W
0T
1L
0I
03
10
b1111 !
b1111 `"
b1111 d"
b1111 m"
b1111 o"
1q"
1Q"
0O"
b1101 "
b1101 <"
b1101 @"
b1101 I"
b1101 K"
1M"
b1100 #
b1100 v
b1100 z
b1100 %"
b1100 '"
1-"
0i
1e
b110 $
b110 R
b110 V
b110 _
b110 a
0c
1E
0C
b1011 %
b1011 .
b1011 2
b1011 ;
b1011 =
1?
1+
